{
  "AWSTemplateFormatVersion" : "2010-09-09",
  "Description": "Make bastion instance which can be used to populate the RDS instance",
  "Parameters": {
    "StackName": {
      "Description": "The stack name of the VPC we are running",
      "Type": "String",
      "Default": "DiRTStack"
    },
    "AZa": {
      "Description": "Which Availability Zone",
      "Default": "us-east-1a",
      "Type": "String"
    },
    "AMI": {
      "Description": "Amazon Image ID",
      "Default": "ami-0ff8a91507f77f867",
      "Type": "String"
    },
    "KeyName" : {
      "Description" : "The EC2 Key Pair to allow SSH access to the instances",
      "Type" : "AWS::EC2::KeyPair::KeyName",
      "ConstraintDescription" : "must be the name of an existing EC2 KeyPair.",
      "Default": "TommyNV"
    },
  },
  "Resources": {
    "MyInstance": {
     "Type" : "AWS::EC2::Instance",
     "Properties" : {
       "AvailabilityZone" : { "Ref": "AZa" },
       "ImageId" : { "Ref": "AMI"},
       "KeyName": { "Ref": "KeyName"},
       "InstanceType": "t2.nano",
       "NetworkInterfaces": [{
         "AssociatePublicIpAddress": true,
         "DeviceIndex": "0",
         "SubnetId": {"Fn::ImportValue": { "Fn::Join" : [ "-", [ {"Ref": "StackName"}, "SubnetPublicEXPORTa"  ] ] }  },

         "GroupSet": [
           {"Fn::ImportValue": { "Fn::Join" : [ "-", [ {"Ref": "StackName"}, "WorldSSHGroupEXPORT"  ] ] }  },
           {"Fn::ImportValue": { "Fn::Join" : [ "-", [ {"Ref": "StackName"}, "PublicHTTPGroupIDEXPORTa"  ] ] }  },
           {"Fn::ImportValue": { "Fn::Join" : [ "-", [ {"Ref": "StackName"}, "PublicHTTPGroupIDEXPORTa"  ] ] }  }
         ]
       }],
       "Tags": [{
         "Key": "Name",
         "Value": { "Fn::Join" : [ "-", [ {"Ref": "StackName"}, "Bastion"  ] ] }
       }]
     }
    }
  }
}
