{
  "AWSTemplateFormatVersion" : "2010-09-09",
  "Description": "Starts the RDS instances and makes a cluster",
  "Parameters": {
    "StackName": {
      "Description": "The stack name of the VPC we are running",
      "Type": "String",
      "Default": "DiRTStack"
    },
    "Username": {
      "Description": "Username for the database",
      "Type": "String",
      "Default": "DiRT"
    },
    "Password": {
      "Description": "Password for the database",
      "Type": "String",
      "Default": "dirtysecrets"
    },
    "AZa": {
      "Description": "Availability Zone a",
      "Type": "String",
      "Default": "us-east-1a"
    },
    "AZb": {
      "Description": "Availability Zone b",
      "Type": "String",
      "Default": "us-east-1b"
    }
  },
  "Resources": {
    "RDSCluster" : {
      "Type" : "AWS::RDS::DBCluster",
      "Properties" : {
        "MasterUsername" : { "Ref" : "Username" },
        "MasterUserPassword" : { "Ref" : "Password" },
        "Engine" : "aurora",
        "DBClusterIdentifier": { "Fn::Join" : [ "-", [ {"Ref": "StackName"}, "DBCIndetifier"  ] ] },
        "DBSubnetGroupName" : { "Ref" : "DBSubnetGroup" },
        "VpcSecurityGroupIds": [
          {"Fn::ImportValue": { "Fn::Join" : [ "-", [ {"Ref": "StackName"}, "MySQLGroupEXPORT"  ] ] }  }
        ],
        "DBClusterParameterGroupName" : { "Ref" : "RDSDBClusterParameterGroup" }
      }
    },
    "DBSubnetGroup": {
       "Type" : "AWS::RDS::DBSubnetGroup",
       "Properties" : {
          "DBSubnetGroupDescription" : "Subnet for the RDS instances",
          "SubnetIds" : [
            {"Fn::ImportValue": { "Fn::Join" : [ "-", [ {"Ref": "StackName"}, "SubnetPublicEXPORTa"  ] ] }  },
            {"Fn::ImportValue": { "Fn::Join" : [ "-", [ {"Ref": "StackName"}, "SubnetPublicEXPORTb"  ] ] }  }
          ],
          "Tags": [{
            "Key": "Name",
            "Value": "DiRT RDS Subnet"
          }]
       }
    },
    "RDSDBInstancea" : {
      "Type" : "AWS::RDS::DBInstance",
      "Properties" : {
        "DBSubnetGroupName" : {
          "Ref" : "DBSubnetGroup"
        },
        "DBParameterGroupName" :{"Ref": "RDSDBParameterGroup"},
        "Engine" : "aurora",
        "DBClusterIdentifier" : {
          "Ref" : "RDSCluster"
        },
        "PubliclyAccessible" : false,
        "AvailabilityZone" : {"Ref": "AZa"},
        "DBInstanceClass" : "db.r4.large",
        "Tags" : [ { "Key" : "Name", "Value" : "DiRT Database a" } ]
      }
    },
    "RDSDBInstanceb" : {
      "Type" : "AWS::RDS::DBInstance",
      "Properties" : {
        "DBSubnetGroupName" : {
          "Ref" : "DBSubnetGroup"
        },
        "DBParameterGroupName" :{"Ref": "RDSDBParameterGroup"},
        "Engine" : "aurora",
        "DBClusterIdentifier" : {
          "Ref" : "RDSCluster"
        },
        "PubliclyAccessible" : false,
        "AvailabilityZone" : { "Ref": "AZb" },
        "DBInstanceClass" : "db.r4.large",
        "Tags" : [ { "Key" : "Name", "Value" : "DiRT Database b" } ]
      }
    },
    "RDSDBClusterParameterGroup" : {
      "Type": "AWS::RDS::DBClusterParameterGroup",
      "Properties" : {
        "Description" : "Aurora Cluster Parameter Group",
        "Family" : "aurora5.6",
        "Parameters" : {
          "time_zone" : "US/Eastern"
        }
      }
    },
    "RDSDBParameterGroup": {
      "Type": "AWS::RDS::DBParameterGroup",
      "Properties" : {
        "Description" : "Aurora Parameter Group",
        "Family" : "aurora5.6",
        "Parameters" : {
        }
      }
    }
  }
}
